{
  "message": "ok",
  "total_records": 82,
  "total_pages": 9,
  "previous": null,
  "next": "https://swapi.tech/api/people?page=2&limit=10",
  "results": [
    {
      "uid": "1",
      "name": "Luke Skywalker",
      "url": "https://www.swapi.tech/api/people/1"
    },
    {
      "uid": "2",
      "name": "C-3PO",
      "url": "https://www.swapi.tech/api/people/2"
    },
    {
      "uid": "3",
      "name": "R2-D2",
      "url": "https://www.swapi.tech/api/people/3"
    },
    {
      "uid": "4",
      "name": "Darth Vader",
      "url": "https://www.swapi.tech/api/people/4"
    },
    {
      "uid": "5",
      "name": "Leia Organa",
      "url": "https://www.swapi.tech/api/people/5"
    },
    {
      "uid": "6",
      "name": "Owen Lars",
      "url": "https://www.swapi.tech/api/people/6"
    },
    {
      "uid": "7",
      "name": "Beru Whitesun lars",
      "url": "https://www.swapi.tech/api/people/7"
    },
    {
      "uid": "8",
      "name": "R5-D4",
      "url": "https://www.swapi.tech/api/people/8"
    },
    {
      "uid": "9",
      "name": "Biggs Darklighter",
      "url": "https://www.swapi.tech/api/people/9"
    },
    {
      "uid": "10",
      "name": "Obi-Wan Kenobi",
      "url": "https://www.swapi.tech/api/people/10"
    }
  ],
  "apiVersion": "1.0",
  "timestamp": "2025-03-08T18:30:49.181Z",
  "support": {
    "contact": "admin@swapi.tech",
    "donate": "https://www.paypal.com/donate/?business=2HGAUVTWGR5T2&no_recurring=0&item_name=Support+Swapi+and+keep+the+galaxy%27s+data+free%21+Your+donation+fuels+open-source+innovation+and+helps+us+grow.+Thank+you%21+%F0%9F%9A%80&currency_code=USD",
    "partnerDiscounts": {
      "saberMasters": {
        "link": "https://www.swapi.tech/partner-discount/sabermasters-swapi",
        "details": "Use this link to automatically get $10 off your purchase!"
      }
    }
  },
  "social": {
    "discord": "https://discord.gg/zWvA6GPeNG",
    "reddit": "https://www.reddit.com/r/SwapiOfficial/",
    "github": "https://github.com/semperry/swapi/blob/main/CONTRIBUTORS.md"
  }
}